{
    "properties": [
        {
            "id": "02b4c29a-79a4-4452-be17-fb7058c7b930",
            "address": "2865 12TH ST",
            "city": "SAN PABLO",
            "state": "CA",
            "zipCode": "94806",
            "county": "Contra Costa",
            "latitude": 37.973545,
            "longitude": -122.35175,
            "bedrooms": 4,
            "bathrooms": 2,
            "squareFeet": 1179,
            "yearBuilt": 1953,
            "propertyType": "Single Family",
            "status": "wholesale",
            "price": 350000,
            "dateSold": "2026-02-13",
            "companyId": "11a95798-00e2-4532-b76e-f32748003cf8",
            "buyerId": "11a95798-00e2-4532-b76e-f32748003cf8",
            "sellerId": "11a95798-00e2-4532-b76e-f32748003cf8",
            "buyerCompanyName": "Revive Norcal LLC",
            "buyerContactName": null,
            "buyerContactEmail": null,
            "buyerContactPhone": null,
            "sellerCompanyName": "Revive Norcal LLC",
            "sellerContactName": null,
            "sellerContactEmail": null,
            "sellerContactPhone": null,
            "companyName": "Revive Norcal LLC",
            "companyContactName": null,
            "companyContactEmail": null,
            "companyContactPhone": null,
            "propertyOwner": "Revive Norcal LLC",
            "propertyOwnerId": "11a95798-00e2-4532-b76e-f32748003cf8",
            "description": null,
            "imageUrl": null,
            "purchasePrice": null,
            "saleValue": null,
            "isCorporate": null,
            "isCashBuyer": null,
            "isDiscountedPurchase": null,
            "isPrivateLender": null,
            "buyerPropertiesCount": null,
            "buyerTransactionsCount": null,
            "sellerName": null,
            "lenderName": null,
            "exitValue": null,
            "exitBuyerName": null,
            "profitLoss": null,
            "holdDays": null,
            "avmValue": null,
            "loanAmount": null,
            "msa": "San Francisco-Oakland-Fremont, CA",
            "createdAt": "2026-02-23T17:38:25.177Z",
            "updatedAt": "2026-02-23T17:38:25.123Z"
        },
        {
            "id": "05c4fb92-de7a-494f-97bb-70316df0576c",
            "address": "6802 CAMINO BERDECIO",
            "city": "SAN DIEGO",
            "state": "CA",
            "zipCode": "92111",
            "county": "San Diego",
            "latitude": 32.7704,
            "longitude": -117.17039,
            "bedrooms": 3,
            "bathrooms": 3,
            "squareFeet": 2033,
            "yearBuilt": 1986,
            "propertyType": "Condo",
            "status": "sold",
            "price": 1200000,
            "dateSold": "2026-02-13",
            "companyId": "153ca10e-dbd7-438f-bb95-d463b0ae0712",
            "buyerId": null,
            "sellerId": "153ca10e-dbd7-438f-bb95-d463b0ae0712",
            "buyerCompanyName": null,
            "buyerContactName": null,
            "buyerContactEmail": null,
            "buyerContactPhone": null,
            "sellerCompanyName": "Home Repo Tour Inc",
            "sellerContactName": null,
            "sellerContactEmail": null,
            "sellerContactPhone": null,
            "companyName": "Home Repo Tour Inc",
            "companyContactName": null,
            "companyContactEmail": null,
            "companyContactPhone": null,
            "propertyOwner": "Home Repo Tour Inc",
            "propertyOwnerId": "153ca10e-dbd7-438f-bb95-d463b0ae0712",
            "description": null,
            "imageUrl": null,
            "purchasePrice": null,
            "saleValue": null,
            "isCorporate": null,
            "isCashBuyer": null,
            "isDiscountedPurchase": null,
            "isPrivateLender": null,
            "buyerPropertiesCount": null,
            "buyerTransactionsCount": null,
            "sellerName": null,
            "lenderName": null,
            "exitValue": null,
            "exitBuyerName": null,
            "profitLoss": null,
            "holdDays": null,
            "avmValue": null,
            "loanAmount": null,
            "msa": "San Diego-Chula Vista-Carlsbad, CA",
            "createdAt": "2026-02-23T17:17:07.947Z",
            "updatedAt": "2026-02-24T23:57:04.618Z"
        },
        {
            "id": "2876a660-9be6-467e-bdc2-73ff23fcf807",
            "address": "2840 NIPOMA ST",
            "city": "SAN DIEGO",
            "state": "CA",
            "zipCode": "92106",
            "county": "San Diego",
            "latitude": 32.749657,
            "longitude": -117.22337,
            "bedrooms": 2,
            "bathrooms": 2,
            "squareFeet": 1372,
            "yearBuilt": 1951,
            "propertyType": "Single Family",
            "status": "in-renovation",
            "price": 204542,
            "dateSold": "2026-02-13",
            "companyId": "a4be8807-4d97-45b9-b1c0-ba861a2c69fe",
            "buyerId": "a4be8807-4d97-45b9-b1c0-ba861a2c69fe",
            "sellerId": null,
            "buyerCompanyName": "Quick Hitter LLC",
            "buyerContactName": null,
            "buyerContactEmail": null,
            "buyerContactPhone": null,
            "sellerCompanyName": null,
            "sellerContactName": null,
            "sellerContactEmail": null,
            "sellerContactPhone": null,
            "companyName": "Quick Hitter LLC",
            "companyContactName": null,
            "companyContactEmail": null,
            "companyContactPhone": null,
            "propertyOwner": "Quick Hitter LLC",
            "propertyOwnerId": "a4be8807-4d97-45b9-b1c0-ba861a2c69fe",
            "description": null,
            "imageUrl": null,
            "purchasePrice": null,
            "saleValue": null,
            "isCorporate": null,
            "isCashBuyer": null,
            "isDiscountedPurchase": null,
            "isPrivateLender": null,
            "buyerPropertiesCount": null,
            "buyerTransactionsCount": null,
            "sellerName": null,
            "lenderName": null,
            "exitValue": null,
            "exitBuyerName": null,
            "profitLoss": null,
            "holdDays": null,
            "avmValue": null,
            "loanAmount": null,
            "msa": "San Diego-Chula Vista-Carlsbad, CA",
            "createdAt": "2026-02-23T17:17:21.287Z",
            "updatedAt": "2026-02-24T23:57:26.353Z"
        },
        {
            "id": "2f8a5763-45f8-4752-92c6-d883dd27e5f8",
            "address": "533 CAMINO DEL MAR",
            "city": "DEL MAR",
            "state": "CA",
            "zipCode": "92014",
            "county": "San Diego",
            "latitude": 32.949898,
            "longitude": -117.26133,
            "bedrooms": 2,
            "bathrooms": 2,
            "squareFeet": 1460,
            "yearBuilt": 1973,
            "propertyType": "Duplex",
            "status": "on-market",
            "price": 2350000,
            "dateSold": "2026-02-13",
            "companyId": "99c8532c-1314-4855-9f1f-91a049e93e63",
            "buyerId": "99c8532c-1314-4855-9f1f-91a049e93e63",
            "sellerId": "e57a3091-c4ae-4450-9908-7353b390a643",
            "buyerCompanyName": "Sol Y Mar Casitas LLC",
            "buyerContactName": null,
            "buyerContactEmail": null,
            "buyerContactPhone": null,
            "sellerCompanyName": "K S Mattson Partners LP",
            "sellerContactName": null,
            "sellerContactEmail": null,
            "sellerContactPhone": null,
            "companyName": "Sol Y Mar Casitas LLC",
            "companyContactName": null,
            "companyContactEmail": null,
            "companyContactPhone": null,
            "propertyOwner": "Sol Y Mar Casitas LLC",
            "propertyOwnerId": "99c8532c-1314-4855-9f1f-91a049e93e63",
            "description": null,
            "imageUrl": null,
            "purchasePrice": null,
            "saleValue": null,
            "isCorporate": null,
            "isCashBuyer": null,
            "isDiscountedPurchase": null,
            "isPrivateLender": null,
            "buyerPropertiesCount": null,
            "buyerTransactionsCount": null,
            "sellerName": null,
            "lenderName": null,
            "exitValue": null,
            "exitBuyerName": null,
            "profitLoss": null,
            "holdDays": null,
            "avmValue": null,
            "loanAmount": null,
            "msa": "San Diego-Chula Vista-Carlsbad, CA",
            "createdAt": "2026-02-23T17:16:35.173Z",
            "updatedAt": "2026-02-24T23:56:38.010Z"
        },
        {
            "id": "34e67056-8236-4847-a3fa-6b736c1cb246",
            "address": "2867 GILLET AVE",
            "city": "CONCORD",
            "state": "CA",
            "zipCode": "94520",
            "county": "Contra Costa",
            "latitude": 37.99571,
            "longitude": -122.04954,
            "bedrooms": 3,
            "bathrooms": 1,
            "squareFeet": 1084,
            "yearBuilt": 1953,
            "propertyType": "Single Family",
            "status": "in-renovation",
            "price": 112500,
            "dateSold": "2026-02-13",
            "companyId": "3dba1972-1521-4015-8187-34e9754759a0",
            "buyerId": "3dba1972-1521-4015-8187-34e9754759a0",
            "sellerId": null,
            "buyerCompanyName": "Vertex Property Ventures Inc",
            "buyerContactName": null,
            "buyerContactEmail": null,
            "buyerContactPhone": null,
            "sellerCompanyName": null,
            "sellerContactName": null,
            "sellerContactEmail": null,
            "sellerContactPhone": null,
            "companyName": "Vertex Property Ventures Inc",
            "companyContactName": null,
            "companyContactEmail": null,
            "companyContactPhone": null,
            "propertyOwner": "Vertex Property Ventures Inc",
            "propertyOwnerId": "3dba1972-1521-4015-8187-34e9754759a0",
            "description": null,
            "imageUrl": null,
            "purchasePrice": null,
            "saleValue": null,
            "isCorporate": null,
            "isCashBuyer": null,
            "isDiscountedPurchase": null,
            "isPrivateLender": null,
            "buyerPropertiesCount": null,
            "buyerTransactionsCount": null,
            "sellerName": null,
            "lenderName": null,
            "exitValue": null,
            "exitBuyerName": null,
            "profitLoss": null,
            "holdDays": null,
            "avmValue": null,
            "loanAmount": null,
            "msa": "San Francisco-Oakland-Fremont, CA",
            "createdAt": "2026-02-23T17:38:34.603Z",
            "updatedAt": "2026-02-23T17:38:34.549Z"
        },
        {
            "id": "3c3ff484-f3af-4454-92a8-4f5b7ad05253",
            "address": "2552 E ALAMEDA AVE UNIT 104",
            "city": "DENVER",
            "state": "CO",
            "zipCode": "80209",
            "county": "Denver",
            "latitude": 39.70985,
            "longitude": -104.952934,
            "bedrooms": 2,
            "bathrooms": 1,
            "squareFeet": 1835,
            "yearBuilt": 1981,
            "propertyType": "Condo",
            "status": "sold",
            "price": 1910000,
            "dateSold": "2026-02-13",
            "companyId": "6b1c5786-97ef-4ee9-99f8-259f000ae35e",
            "buyerId": null,
            "sellerId": "6b1c5786-97ef-4ee9-99f8-259f000ae35e",
            "buyerCompanyName": null,
            "buyerContactName": null,
            "buyerContactEmail": null,
            "buyerContactPhone": null,
            "sellerCompanyName": "Falstaff Family LLC",
            "sellerContactName": null,
            "sellerContactEmail": null,
            "sellerContactPhone": null,
            "companyName": "Falstaff Family LLC",
            "companyContactName": null,
            "companyContactEmail": null,
            "companyContactPhone": null,
            "propertyOwner": "Falstaff Family LLC",
            "propertyOwnerId": "6b1c5786-97ef-4ee9-99f8-259f000ae35e",
            "description": null,
            "imageUrl": null,
            "purchasePrice": null,
            "saleValue": null,
            "isCorporate": null,
            "isCashBuyer": null,
            "isDiscountedPurchase": null,
            "isPrivateLender": null,
            "buyerPropertiesCount": null,
            "buyerTransactionsCount": null,
            "sellerName": null,
            "lenderName": null,
            "exitValue": null,
            "exitBuyerName": null,
            "profitLoss": null,
            "holdDays": null,
            "avmValue": null,
            "loanAmount": null,
            "msa": "Denver-Aurora-Centennial, CO",
            "createdAt": "2026-02-23T17:32:43.407Z",
            "updatedAt": "2026-02-23T17:32:43.350Z"
        },
        {
            "id": "60f0df66-7c92-4a5a-9f5c-0b475d4d5bf0",
            "address": "6454 GREEN CASTLE CIR",
            "city": "DISCOVERY BAY",
            "state": "CA",
            "zipCode": "94505",
            "county": "Contra Costa",
            "latitude": 37.921387,
            "longitude": -121.61516,
            "bedrooms": 4,
            "bathrooms": 3,
            "squareFeet": 3425,
            "yearBuilt": 2005,
            "propertyType": "Single Family",
            "status": "in-renovation",
            "price": 789000,
            "dateSold": "2026-02-13",
            "companyId": "95c46333-efd9-47e4-b577-79b707d4ff7f",
            "buyerId": "95c46333-efd9-47e4-b577-79b707d4ff7f",
            "sellerId": null,
            "buyerCompanyName": "Ntr Investments LLC",
            "buyerContactName": null,
            "buyerContactEmail": null,
            "buyerContactPhone": null,
            "sellerCompanyName": null,
            "sellerContactName": null,
            "sellerContactEmail": null,
            "sellerContactPhone": null,
            "companyName": "Ntr Investments LLC",
            "companyContactName": null,
            "companyContactEmail": null,
            "companyContactPhone": null,
            "propertyOwner": "Ntr Investments LLC",
            "propertyOwnerId": "95c46333-efd9-47e4-b577-79b707d4ff7f",
            "description": null,
            "imageUrl": null,
            "purchasePrice": null,
            "saleValue": null,
            "isCorporate": null,
            "isCashBuyer": null,
            "isDiscountedPurchase": null,
            "isPrivateLender": null,
            "buyerPropertiesCount": null,
            "buyerTransactionsCount": null,
            "sellerName": null,
            "lenderName": null,
            "exitValue": null,
            "exitBuyerName": null,
            "profitLoss": null,
            "holdDays": null,
            "avmValue": null,
            "loanAmount": null,
            "msa": "San Francisco-Oakland-Fremont, CA",
            "createdAt": "2026-02-23T17:38:10.383Z",
            "updatedAt": "2026-02-23T17:38:10.327Z"
        },
        {
            "id": "684ac084-4846-4268-a26a-05e96fdb8007",
            "address": "24 LAWRENCE AVE",
            "city": "ANTIOCH",
            "state": "CA",
            "zipCode": "94509",
            "county": "Contra Costa",
            "latitude": 38.00189,
            "longitude": -121.81343,
            "bedrooms": 2,
            "bathrooms": 1,
            "squareFeet": 1178,
            "yearBuilt": 1947,
            "propertyType": "Single Family",
            "status": "in-renovation",
            "price": 338000,
            "dateSold": "2026-02-13",
            "companyId": "2c9680ce-4a98-4be4-96e0-77e17eb61d7d",
            "buyerId": "2c9680ce-4a98-4be4-96e0-77e17eb61d7d",
            "sellerId": null,
            "buyerCompanyName": "Nickelson Development LLC",
            "buyerContactName": null,
            "buyerContactEmail": null,
            "buyerContactPhone": null,
            "sellerCompanyName": null,
            "sellerContactName": null,
            "sellerContactEmail": null,
            "sellerContactPhone": null,
            "companyName": "Nickelson Development LLC",
            "companyContactName": null,
            "companyContactEmail": null,
            "companyContactPhone": null,
            "propertyOwner": "Nickelson Development LLC",
            "propertyOwnerId": "2c9680ce-4a98-4be4-96e0-77e17eb61d7d",
            "description": null,
            "imageUrl": null,
            "purchasePrice": null,
            "saleValue": null,
            "isCorporate": null,
            "isCashBuyer": null,
            "isDiscountedPurchase": null,
            "isPrivateLender": null,
            "buyerPropertiesCount": null,
            "buyerTransactionsCount": null,
            "sellerName": null,
            "lenderName": null,
            "exitValue": null,
            "exitBuyerName": null,
            "profitLoss": null,
            "holdDays": null,
            "avmValue": null,
            "loanAmount": null,
            "msa": "San Francisco-Oakland-Fremont, CA",
            "createdAt": "2026-02-23T17:37:56.919Z",
            "updatedAt": "2026-02-23T17:37:56.863Z"
        },
        {
            "id": "7519ef3b-e502-416c-9c90-d6418eba8cdf",
            "address": "3180 WHEELING ST",
            "city": "AURORA",
            "state": "CO",
            "zipCode": "80011",
            "county": "Adams",
            "latitude": 39.76139,
            "longitude": -104.83073,
            "bedrooms": 3,
            "bathrooms": 2,
            "squareFeet": 2240,
            "yearBuilt": 1959,
            "propertyType": "Single Family",
            "status": "sold",
            "price": 374000,
            "dateSold": "2026-02-13",
            "companyId": "a4e606aa-4559-4222-b003-e0f9dd7a5d89",
            "buyerId": null,
            "sellerId": "a4e606aa-4559-4222-b003-e0f9dd7a5d89",
            "buyerCompanyName": null,
            "buyerContactName": null,
            "buyerContactEmail": null,
            "buyerContactPhone": null,
            "sellerCompanyName": "United Colorado LLC",
            "sellerContactName": null,
            "sellerContactEmail": null,
            "sellerContactPhone": null,
            "companyName": "United Colorado LLC",
            "companyContactName": null,
            "companyContactEmail": null,
            "companyContactPhone": null,
            "propertyOwner": "United Colorado LLC",
            "propertyOwnerId": "a4e606aa-4559-4222-b003-e0f9dd7a5d89",
            "description": null,
            "imageUrl": null,
            "purchasePrice": null,
            "saleValue": null,
            "isCorporate": null,
            "isCashBuyer": null,
            "isDiscountedPurchase": null,
            "isPrivateLender": null,
            "buyerPropertiesCount": null,
            "buyerTransactionsCount": null,
            "sellerName": null,
            "lenderName": null,
            "exitValue": null,
            "exitBuyerName": null,
            "profitLoss": null,
            "holdDays": null,
            "avmValue": null,
            "loanAmount": null,
            "msa": "Denver-Aurora-Centennial, CO",
            "createdAt": "2026-02-23T17:33:01.177Z",
            "updatedAt": "2026-02-23T17:33:01.111Z"
        },
        {
            "id": "868a90c2-dfb0-487e-a62c-4cf8433d187d",
            "address": "1453 QUITMAN ST",
            "city": "DENVER",
            "state": "CO",
            "zipCode": "80204",
            "county": "Denver",
            "latitude": 39.739494,
            "longitude": -105.04079,
            "bedrooms": 2,
            "bathrooms": 1,
            "squareFeet": 2522,
            "yearBuilt": 1927,
            "propertyType": "Single Family",
            "status": "in-renovation",
            "price": 545000,
            "dateSold": "2026-02-13",
            "companyId": "23e021f7-2f7d-48c1-9690-ecc65bad5edd",
            "buyerId": "23e021f7-2f7d-48c1-9690-ecc65bad5edd",
            "sellerId": null,
            "buyerCompanyName": "Trojan Builders LLC",
            "buyerContactName": null,
            "buyerContactEmail": null,
            "buyerContactPhone": null,
            "sellerCompanyName": null,
            "sellerContactName": null,
            "sellerContactEmail": null,
            "sellerContactPhone": null,
            "companyName": "Trojan Builders LLC",
            "companyContactName": null,
            "companyContactEmail": null,
            "companyContactPhone": null,
            "propertyOwner": "Trojan Builders LLC",
            "propertyOwnerId": "23e021f7-2f7d-48c1-9690-ecc65bad5edd",
            "description": null,
            "imageUrl": null,
            "purchasePrice": null,
            "saleValue": null,
            "isCorporate": null,
            "isCashBuyer": null,
            "isDiscountedPurchase": null,
            "isPrivateLender": null,
            "buyerPropertiesCount": null,
            "buyerTransactionsCount": null,
            "sellerName": null,
            "lenderName": null,
            "exitValue": null,
            "exitBuyerName": null,
            "profitLoss": null,
            "holdDays": null,
            "avmValue": null,
            "loanAmount": null,
            "msa": "Denver-Aurora-Centennial, CO",
            "createdAt": "2026-02-23T17:32:47.792Z",
            "updatedAt": "2026-02-23T17:32:47.734Z"
        }
    ],
    "total": 254,
    "hasMore": true,
    "page": 1,
    "limit": 10
}